cpu_tb.vcd
$date
	Sat Apr 11 09:19:22 2026
$end
$version
	Icarus Verilog
$end
$timescale
	1ps
$end
$scope module cpu_tb $end
$var reg 1 ! clk $end
$var reg 1 " rst $end
$scope module uut $end
$var event 1 # _ivl_12 $end
$var wire 1 ! clk $end
$var wire 8 $ instruction [7:0] $end
$var wire 1 " rst $end
$var wire 2 % rd [1:0] $end
$var wire 8 & rb_data [7:0] $end
$var wire 2 ' rb [1:0] $end
$var wire 8 ( ra_data [7:0] $end
$var wire 2 ) ra [1:0] $end
$var wire 2 * opcode [1:0] $end
$var wire 8 + alu_result [7:0] $end
$var reg 8 , pc [7:0] $end
$var reg 1 - reg_we $end
$scope module alu_unit $end
$var wire 2 . alu_op [1:0] $end
$var wire 8 / b [7:0] $end
$var wire 8 0 a [7:0] $end
$var parameter 2 1 ADD $end
$var parameter 2 2 AND $end
$var parameter 2 3 OR $end
$var parameter 2 4 SUB $end
$var reg 8 5 result [7:0] $end
$upscope $end
$scope module rf $end
$var wire 1 ! clk $end
$var wire 2 6 ra_addr [1:0] $end
$var wire 8 7 ra_data [7:0] $end
$var wire 2 8 rb_addr [1:0] $end
$var wire 8 9 rb_data [7:0] $end
$var wire 2 : rd_addr [1:0] $end
$var wire 1 " rst $end
$var wire 1 - we $end
$var wire 8 ; wr_data [7:0] $end
$upscope $end
$upscope $end
$upscope $end
$enddefinitions $end
$comment Show the parameter values. $end
$dumpall
b1 4
b11 3
b10 2
b0 1
$end
#0
$dumpvars
b0 ;
b1 :
b0 9
b1 8
b0 7
b0 6
b0 5
b0 0
b0 /
b0 .
x-
b0 ,
b0 +
b0 *
b0 )
b0 (
b1 '
b0 &
b1 %
b10001 $
1#
1"
0!
$end
#5000
1!
#10000
0!
#15000
b1 )
b1 6
b10101 $
b1 ,
1!
0"
#20000
0!
#25000
b0 )
b0 6
b10001 $
b10 ,
1!
#30000
0!
#35000
b10 %
b10 :
b10 '
b10 8
b100010 $
b11 ,
1!
#40000
0!
#45000
b0 %
b0 :
b1 )
b1 6
b110 $
b100 ,
1!
#50000
0!
#55000
b1 *
b1 .
b11 %
b11 :
b0 )
b0 6
b1110010 $
b101 ,
1!
#60000
0!
#65000
b10 *
b10 .
b1 %
b1 :
b1 )
b1 6
b10010110 $
b110 ,
1!
#70000
0!
#75000
b11 *
b11 .
b10 %
b10 :
b0 '
b0 8
b11100100 $
b111 ,
1!
#80000
0!
#85000
b0 *
b0 .
b0 %
b0 :
b0 )
b0 6
b0 $
b1000 ,
1!
#90000
0!
#95000
b1001 ,
1!
#100000
0!
#105000
b1010 ,
1!
#110000
0!
#115000
b1011 ,
1!
#120000
0!
#125000
b1100 ,
1!
#130000
0!
#135000
b1101 ,
1!
#140000
0!
#145000
b1110 ,
1!
#150000
0!
#155000
b1111 ,
1!
#160000
0!
#165000
bx *
bx .
bx %
bx :
bx (
bx 0
bx 7
bx )
bx 6
bx &
bx /
bx 9
bx '
bx 8
bx $
b10000 ,
1!
#170000
0!
#175000
b10001 ,
1!
#180000
0!
#185000
b10010 ,
1!
#190000
0!
#195000
b10011 ,
1!
#200000
0!
#205000
b10100 ,
1!
